{
    "type": "Ext.app.Controller",
    "reference": {
        "name": "items",
        "type": "array"
    },
    "codeClass": null,
    "userConfig": {
        "models": [
            "History"
        ],
        "stores": [
            "HistoryStore",
            "HistorySortOptions"
        ],
        "views": [
            "Main",
            "History"
        ],
        "designer|userClassName": "View.History"
    },
    "designerId": "ea14999a-dbf2-4bce-828f-5fa09f5990f5",
    "cn": [
        {
            "type": "controlleraction",
            "reference": {
                "name": "listeners",
                "type": "array"
            },
            "codeClass": null,
            "userConfig": {
                "fn": "onHistorySortOptionsChange",
                "implHandler": [
                    "me=this;",
                    "",
                    "",
                    "var valTokens = newValue.split('~');",
                    "var sortField = valTokens[0];",
                    "var sortDirection = valTokens[1];",
                    "",
                    "//alert(sortField + ' - ' +sortDirection);",
                    "",
                    "",
                    "var store = Ext.getStore('HistoryStore').load();",
                    "store.sort(sortField,sortDirection);",
                    "",
                    ""
                ],
                "name": "change",
                "designer|targetType": "Ext.field.Select",
                "designer|controlQuery": "selectfield[name=historySortOptions]"
            },
            "designerId": "0f5f086a-49fb-4f7f-9306-8caec0025137"
        },
        {
            "type": "controlleraction",
            "reference": {
                "name": "listeners",
                "type": "array"
            },
            "codeClass": null,
            "userConfig": {
                "fn": "onSortDirectionTap",
                "implHandler": [
                    "me=this;",
                    "",
                    "//Ext.Msg.alert('Controller', 'View.History - onSortDirectionTap');",
                    "",
                    "var test = button.getIconCls();",
                    "",
                    "if(test=='arrow_up')",
                    "{",
                    "",
                    "    button.setIconCls('arrow_down');",
                    "}",
                    "else",
                    "{",
                    "    button.setIconCls('arrow_up');",
                    "}",
                    "me.sortHistory();"
                ],
                "name": "tap",
                "designer|targetType": "Ext.Button",
                "designer|controlQuery": "button[name=historySortDirection]"
            },
            "designerId": "3c40ef08-6fdc-4121-8ee4-821780e14f8c"
        },
        {
            "type": "controlleraction",
            "reference": {
                "name": "listeners",
                "type": "array"
            },
            "codeClass": null,
            "userConfig": {
                "fn": "onPurgeHistoryButtonTap",
                "implHandler": [
                    "",
                    "//Ext.Msg.alert('Controller', 'View.History - onPurgeHistoryButtonTap');",
                    "",
                    "",
                    "Ext.Msg.confirm(\"Delete\", \"Are you sure you want delete all  history?\", function(button){     ",
                    "    if (button == 'yes') {",
                    "        var store = Ext.getStore('HistoryStore').load();",
                    "        store.removeAll();",
                    "        store.sync();",
                    "",
                    "    } else {",
                    "",
                    "        return false;",
                    "",
                    "    }",
                    "",
                    "}, this);"
                ],
                "name": "tap",
                "designer|targetType": "Ext.Button",
                "designer|controlQuery": "button[name=purgeHistoryButton]"
            },
            "designerId": "7db3e8e4-c17c-4574-a274-0ce87188c2c0"
        },
        {
            "type": "controlleraction",
            "reference": {
                "name": "listeners",
                "type": "array"
            },
            "codeClass": null,
            "userConfig": {
                "fn": "onEmailHistoryButtonTap",
                "implHandler": [
                    "var csv=\"\";",
                    "",
                    "",
                    "csv = csv + \"Start Date Time,Duration, Speech\"; //header",
                    "    //csv = csv + \"\\n\"; //new line for each row",
                    "\t//csv = csv + \"%0A%0A\"; //new paragraph for mail body",
                    "    csv = csv + \"%0D%0A\"; //new line for mail body",
                    "",
                    "Ext.getStore('HistoryStore').load().each(function(record) {",
                    "",
                    "    csv = csv + record.getData().startTimestampDisplay +\",\";",
                    "    csv = csv + record.getData().durationDisplay +\",\";",
                    "    csv = csv + record.getData().speechName +\"\";",
                    "    //csv = csv + \"\\n\"; //new line for each row",
                    "\t//csv = csv + \"%0A%0A\"; //new paragraph for mail body",
                    "    csv = csv + \"%0D%0A\"; //new line for mail body",
                    "    ",
                    "    ",
                    "});",
                    "//csv = csv + 'end';",
                    "//Ext.Msg.alert('Email History', csv);",
                    "",
                    "",
                    " var mailUrl = 'mailto:?body='+csv; ",
                    "",
                    "            if(mailUrl!=='')",
                    "            {",
                    "                window.open(mailUrl);",
                    "//               window.open(mailUrl , '_system'); //system is phonegap child browser  ",
                    "            }",
                    "",
                    "",
                    ""
                ],
                "name": "tap",
                "designer|targetType": "Ext.Button",
                "designer|controlQuery": "button[name=emailHistoryButton]"
            },
            "designerId": "458a4e46-b8ed-48f7-b93b-a247a544ba1d"
        },
        {
            "type": "controlleraction",
            "reference": {
                "name": "listeners",
                "type": "array"
            },
            "codeClass": null,
            "userConfig": {
                "fn": "onListItemSingletap",
                "implHandler": [
                    "me=this;",
                    "//Ext.Msg.alert('onListItemSingletap', record.get('durationFloat'));",
                    "",
                    "",
                    "var detail = this.getHistoryDetailPage();",
                    "detail.setRecord(record);",
                    "",
                    "/*",
                    "this.getMain().animateActiveItem(this.getHistoryDetailPage(), {              ",
                    "    type: 'slide',                                   ",
                    "    direction: 'left'    ",
                    "});",
                    "*/"
                ],
                "name": "itemsingletap",
                "designer|targetType": "Ext.dataview.List",
                "designer|controlQuery": "History"
            },
            "designerId": "e98b85d0-1314-4524-ad69-7a8f88d21b8e"
        },
        {
            "type": "controllerref",
            "reference": {
                "name": "items",
                "type": "array"
            },
            "codeClass": null,
            "userConfig": {
                "autoCreate": true,
                "ref": "HistoryDetailPage",
                "selector": "HistoryDetail",
                "xtype": "HistoryDetail"
            },
            "designerId": "a4e8c152-7377-4e53-90f7-5d112ea3f06d"
        },
        {
            "type": "controllerref",
            "reference": {
                "name": "items",
                "type": "array"
            },
            "codeClass": null,
            "userConfig": {
                "autoCreate": true,
                "ref": "Main",
                "selector": "Main",
                "xtype": "Main"
            },
            "designerId": "0f637c78-4e59-42e1-8fe4-ee14d95ef983"
        }
    ]
}